waves/top_tb.vcd
$date
	Thu Feb  8 11:30:35 2024
$end
$version
	Icarus Verilog
$end
$timescale
	10ns
$end
$scope module top_tb $end
$var wire 32 ! instr [31:0] $end
$var reg 1 " clk $end
$var integer 32 # i [31:0] $end
$scope module uut $end
$var wire 1 " clk $end
$var wire 32 $ instr [31:0] $end
$var wire 32 % s_writeData [31:0] $end
$var wire 32 & s_readData [31:0] $end
$var wire 16 ' s_pc [15:0] $end
$var wire 1 ( s_memWrite $end
$var wire 32 ) s_instr [31:0] $end
$var wire 32 * s_ALUResult [31:0] $end
$scope module memoria $end
$var wire 16 + addr [15:0] $end
$var wire 1 " clk $end
$var wire 32 , writeData [31:0] $end
$var wire 1 ( we $end
$var wire 32 - readData [31:0] $end
$var wire 16 . pc [15:0] $end
$var wire 32 / instr [31:0] $end
$scope module dataMemory $end
$var wire 16 0 addres [15:0] $end
$var wire 1 " clk $end
$var wire 32 1 rd [31:0] $end
$var wire 1 ( we $end
$var wire 32 2 wd [31:0] $end
$upscope $end
$scope module instructionMemory $end
$var wire 32 3 instr [31:0] $end
$var wire 16 4 pc [15:0] $end
$var parameter 32 5 ROM_ADDR_BITS $end
$var parameter 32 6 ROM_WIDTH $end
$upscope $end
$upscope $end
$scope module procesador $end
$var wire 1 " clk $end
$var wire 32 7 instr [31:0] $end
$var wire 32 8 readData [31:0] $end
$var wire 32 9 writeData [31:0] $end
$var wire 1 : s_zero $end
$var wire 2 ; s_resSrc [1:0] $end
$var wire 1 < s_regWrite $end
$var wire 7 = s_op [6:0] $end
$var wire 1 > s_jump $end
$var wire 2 ? s_immSrc [1:0] $end
$var wire 1 @ s_f7 $end
$var wire 3 A s_f3 [2:0] $end
$var wire 1 B s_branch $end
$var wire 1 C s_aluSrc $end
$var wire 3 D s_ALUControl [2:0] $end
$var wire 16 E pc [15:0] $end
$var wire 1 ( memWrite $end
$var wire 32 F ALUResult [31:0] $end
$scope module dp $end
$var wire 32 G ALUResult [31:0] $end
$var wire 1 " clk $end
$var wire 32 H instr [31:0] $end
$var wire 16 I pc [15:0] $end
$var wire 32 J readData [31:0] $end
$var wire 32 K writeData [31:0] $end
$var wire 1 : zero $end
$var wire 32 L s_srcB [31:0] $end
$var wire 32 M s_srcA [31:0] $end
$var wire 32 N s_src2 [31:0] $end
$var wire 32 O s_result [31:0] $end
$var wire 16 P s_pcPlus [15:0] $end
$var wire 16 Q s_pcNext [15:0] $end
$var wire 16 R s_pcJump [15:0] $end
$var wire 16 S s_pc [15:0] $end
$var wire 16 T s_PCK1 [15:0] $end
$var wire 32 U s_InmExt [31:0] $end
$var wire 32 V s_ALUResult [31:0] $end
$var wire 2 W resultSrc [1:0] $end
$var wire 1 < regWrite $end
$var wire 7 X opecode [6:0] $end
$var wire 1 > jump $end
$var wire 2 Y inmSrc [1:0] $end
$var wire 1 @ f7 $end
$var wire 3 Z f3 [2:0] $end
$var wire 1 B branch $end
$var wire 1 C ALUSrc $end
$var wire 3 [ ALUControl [2:0] $end
$var reg 16 \ cuatro [15:0] $end
$scope module addPC4 $end
$var wire 16 ] res [15:0] $end
$var wire 16 ^ op2 [15:0] $end
$var wire 16 _ op1 [15:0] $end
$upscope $end
$scope module addPCJump $end
$var wire 16 ` op1 [15:0] $end
$var wire 16 a res [15:0] $end
$var wire 16 b op2 [15:0] $end
$upscope $end
$scope module alu $end
$var wire 32 c res [31:0] $end
$var wire 1 : zero $end
$var wire 32 d srcB [31:0] $end
$var wire 32 e srcA [31:0] $end
$var wire 3 f ALUControl [2:0] $end
$var reg 32 g aux [31:0] $end
$var reg 1 h aux_zero $end
$upscope $end
$scope module bancoDeRegistros $end
$var wire 5 i a1 [4:0] $end
$var wire 5 j a2 [4:0] $end
$var wire 5 k a3 [4:0] $end
$var wire 1 " clk $end
$var wire 32 l rd1 [31:0] $end
$var wire 32 m rd2 [31:0] $end
$var wire 1 < we $end
$var wire 32 n wd3 [31:0] $end
$var integer 32 o i [31:0] $end
$upscope $end
$scope module extensionDeSigno $end
$var wire 32 p instr [31:0] $end
$var wire 2 q src [1:0] $end
$var wire 32 r immExt [31:0] $end
$var reg 32 s immaux [31:0] $end
$upscope $end
$scope module muxJump $end
$var wire 16 t e1 [15:0] $end
$var wire 16 u e2 [15:0] $end
$var wire 16 v sal [15:0] $end
$var wire 1 > sel $end
$var reg 16 w aux [15:0] $end
$upscope $end
$scope module muxPcNext $end
$var wire 16 x e1 [15:0] $end
$var wire 16 y e2 [15:0] $end
$var wire 16 z sal [15:0] $end
$var wire 1 B sel $end
$var reg 16 { aux [15:0] $end
$upscope $end
$scope module muxResult $end
$var wire 32 | e1 [31:0] $end
$var wire 32 } e2 [31:0] $end
$var wire 32 ~ e3 [31:0] $end
$var wire 32 !" e4 [31:0] $end
$var wire 32 "" sal [31:0] $end
$var wire 2 #" sel [1:0] $end
$var reg 32 $" aux [31:0] $end
$upscope $end
$scope module muxSrcB $end
$var wire 32 %" e1 [31:0] $end
$var wire 32 &" e2 [31:0] $end
$var wire 32 '" sal [31:0] $end
$var wire 1 C sel $end
$var reg 32 (" aux [31:0] $end
$upscope $end
$scope module pcReg $end
$var wire 1 " clk $end
$var wire 16 )" pcNext [15:0] $end
$var wire 16 *" pc [15:0] $end
$var reg 16 +" s_pc [15:0] $end
$upscope $end
$upscope $end
$scope module uc $end
$var wire 1 B branch $end
$var wire 3 ," f3 [2:0] $end
$var wire 1 @ f7 $end
$var wire 7 -" op [6:0] $end
$var wire 1 : zero $end
$var wire 1 ." s_branch $end
$var wire 2 /" resSrc [1:0] $end
$var wire 1 < regWrite $end
$var wire 1 ( memWrite $end
$var wire 1 > jump $end
$var wire 2 0" immSrc [1:0] $end
$var wire 1 C aluSrc $end
$var wire 2 1" ALUop [1:0] $end
$var wire 3 2" ALUcontrol [2:0] $end
$var reg 1 3" r_branch $end
$scope module ALUDecoder $end
$var wire 3 4" aluControl [2:0] $end
$var wire 1 5" andAux $end
$var wire 3 6" f3 [2:0] $end
$var wire 1 @ f7 $end
$var wire 1 7" op $end
$var wire 2 8" aluOp [1:0] $end
$var reg 3 9" aluControlAux [2:0] $end
$upscope $end
$scope module MainDecoder $end
$var wire 2 :" aluOp [1:0] $end
$var wire 1 C aluSrc $end
$var wire 1 ." branch $end
$var wire 2 ;" immSrc [1:0] $end
$var wire 1 > jump $end
$var wire 1 ( memWrite $end
$var wire 7 <" op [6:0] $end
$var wire 1 < regWrite $end
$var wire 2 =" resSrc [1:0] $end
$var reg 2 >" aluOpAux [1:0] $end
$var reg 1 ?" aluSrcAux $end
$var reg 1 @" branchAux $end
$var reg 2 A" immSrcAux [1:0] $end
$var reg 1 B" jumpAux $end
$var reg 1 C" memWriteAux $end
$var reg 1 D" regWriteAux $end
$var reg 2 E" resSrcAux [1:0] $end
$upscope $end
$upscope $end
$upscope $end
$upscope $end
$upscope $end
$enddefinitions $end
$comment Show the parameter values. $end
$dumpall
b100000 6
b1000 5
$end
#0
$dumpvars
b0 E"
1D"
0C"
0B"
b0 A"
0@"
1?"
b10 >"
b0 ="
b10011 <"
b0 ;"
b10 :"
b0 9"
b10 8"
07"
b0 6"
05"
b0 4"
03"
b0 2"
b10 1"
b0 0"
b0 /"
0."
b10011 -"
b0 ,"
b0 +"
b0 *"
b100 )"
b11 ("
b11 '"
b11 &"
b0 %"
b11 $"
b0 #"
b11 ""
b100 !"
b11 ~
bx }
b11 |
b100 {
b100 z
b11 y
b100 x
b100 w
b100 v
b11 u
b100 t
b11 s
b11 r
b0 q
b1100000000010000010011 p
b100000 o
b11 n
b0 m
b0 l
b1000 k
b11 j
b0 i
0h
b11 g
b0 f
b0 e
b11 d
b11 c
b0 b
b11 a
b11 `
b100 _
b0 ^
b100 ]
b100 \
b0 [
b0 Z
b0 Y
b10011 X
b0 W
b11 V
b11 U
b100 T
b0 S
b11 R
b100 Q
b100 P
b11 O
b0 N
b0 M
b11 L
b0 K
bx J
b0 I
b1100000000010000010011 H
b11 G
b11 F
b0 E
b0 D
1C
0B
b0 A
0@
b0 ?
0>
b10011 =
1<
b0 ;
0:
b0 9
bx 8
b1100000000010000010011 7
b0 4
b1100000000010000010011 3
b0 2
bx 1
b11 0
b1100000000010000010011 /
b0 .
bx -
b0 ,
b11 +
b11 *
b1100000000010000010011 )
0(
b0 '
bx &
b0 %
b1100000000010000010011 $
b0 #
0"
b1100000000010000010011 !
$end
#50
b1 O
b1 n
b1 ""
b1 $"
b1 +
b1 0
b1 *
b1 F
b1 G
b1 V
b1 c
b1 g
b1 |
b1 L
b1 d
b1 '"
b1 ("
b1000 T
b1000 v
b1000 )"
b1000 w
b1 `
b1 y
b1 j
b1001 k
b1 U
b1 r
b1 s
b1 ~
b1 &"
b101 R
b101 a
b101 u
b1000 !"
b1000 Q
b1000 ]
b1000 t
b100000000010010010011 !
b100000000010010010011 $
b100000000010010010011 )
b100000000010010010011 /
b100000000010010010011 3
b100000000010010010011 7
b100000000010010010011 H
b100000000010010010011 p
b100 '
b100 .
b100 4
b100 E
b100 I
b100 S
b100 ^
b100 b
b100 *"
b100 +"
1"
#100
0"
b1 #
#150
b10000 O
b10000 n
b10000 ""
b10000 $"
b10000 +
b10000 0
b10000 *
b10000 F
b10000 G
b10000 V
b10000 c
b10000 g
b10000 |
b10000 L
b10000 d
b10000 '"
b10000 ("
b1100 T
b1100 v
b1100 )"
b1100 w
b10000 `
b10000 y
b10000 j
b10010 k
b10000 U
b10000 r
b10000 s
b10000 ~
b10000 &"
b11000 R
b11000 a
b11000 u
b1100 !"
b1100 Q
b1100 ]
b1100 t
b1000000000000100100010011 !
b1000000000000100100010011 $
b1000000000000100100010011 )
b1000000000000100100010011 /
b1000000000000100100010011 3
b1000000000000100100010011 7
b1000000000000100100010011 H
b1000000000000100100010011 p
b1000 '
b1000 .
b1000 4
b1000 E
b1000 I
b1000 S
b1000 ^
b1000 b
b1000 *"
b1000 +"
1"
#200
0"
b10 #
#250
b1 O
b1 n
b1 ""
b1 $"
b1 L
b1 d
b1 '"
b1 ("
b10000 T
b10000 v
b10000 )"
b10000 w
b1 +
b1 0
b1 *
b1 F
b1 G
b1 V
b1 c
b1 g
b1 |
b11 D
b11 [
b11 f
b11 2"
b11 4"
b11 9"
17"
0C
0?"
b1001 `
b1001 y
b11 M
b11 e
b11 l
b1000 i
b1 %
b1 ,
b1 2
b1 9
b1 K
b1 N
b1 m
b1 %"
b1001 j
b101 k
b110 A
b110 Z
b110 ,"
b110 6"
b110011 =
b110011 X
b110011 -"
b110011 <"
b1001 U
b1001 r
b1001 s
b1001 ~
b1001 &"
b10101 R
b10101 a
b10101 u
b10000 !"
b10000 Q
b10000 ]
b10000 t
b100101000110001010110011 !
b100101000110001010110011 $
b100101000110001010110011 )
b100101000110001010110011 /
b100101000110001010110011 3
b100101000110001010110011 7
b100101000110001010110011 H
b100101000110001010110011 p
b1100 '
b1100 .
b1100 4
b1100 E
b1100 I
b1100 S
b1100 ^
b1100 b
b1100 *"
b1100 +"
1"
#300
0"
b11 #
#350
b10100 T
b10100 v
b10100 )"
b10100 w
b10 D
b10 [
b10 f
b10 2"
b10 4"
b10 9"
b110 k
b111 A
b111 Z
b111 ,"
b111 6"
b11001 R
b11001 a
b11001 u
b10100 !"
b10100 Q
b10100 ]
b10100 t
b100101000111001100110011 !
b100101000111001100110011 $
b100101000111001100110011 )
b100101000111001100110011 /
b100101000111001100110011 3
b100101000111001100110011 7
b100101000111001100110011 H
b100101000111001100110011 p
b10000 '
b10000 .
b10000 4
b10000 E
b10000 I
b10000 S
b10000 ^
b10000 b
b10000 *"
b10000 +"
1"
#400
0"
b100 #
#450
b100 O
b100 n
b100 ""
b100 $"
b11000 T
b11000 v
b11000 )"
b11000 w
b100 +
b100 0
b100 *
b100 F
b100 G
b100 V
b100 c
b100 g
b100 |
b0 D
b0 [
b0 f
b0 2"
b0 4"
b0 9"
b111 k
b0 A
b0 Z
b0 ,"
b0 6"
b11101 R
b11101 a
b11101 u
b11000 !"
b11000 Q
b11000 ]
b11000 t
b100101000000001110110011 !
b100101000000001110110011 $
b100101000000001110110011 )
b100101000000001110110011 /
b100101000000001110110011 3
b100101000000001110110011 7
b100101000000001110110011 H
b100101000000001110110011 p
b10100 '
b10100 .
b10100 4
b10100 E
b10100 I
b10100 S
b10100 ^
b10100 b
b10100 *"
b10100 +"
1"
#500
0"
b101 #
#550
b10 O
b10 n
b10 ""
b10 $"
b11100 T
b11100 v
b11100 )"
b11100 w
b10 +
b10 0
b10 *
b10 F
b10 G
b10 V
b10 c
b10 g
b10 |
15"
b1 D
b1 [
b1 f
b1 2"
b1 4"
b1 9"
b10000001001 `
b10000001001 y
b11100 k
1@
b10000001001 U
b10000001001 r
b10000001001 s
b10000001001 ~
b10000001001 &"
b10000100001 R
b10000100001 a
b10000100001 u
b11100 !"
b11100 Q
b11100 ]
b11100 t
b1000000100101000000111000110011 !
b1000000100101000000111000110011 $
b1000000100101000000111000110011 )
b1000000100101000000111000110011 /
b1000000100101000000111000110011 3
b1000000100101000000111000110011 7
b1000000100101000000111000110011 H
b1000000100101000000111000110011 p
b11000 '
b11000 .
b11000 4
b11000 E
b11000 I
b11000 S
b11000 ^
b11000 b
b11000 *"
b11000 +"
1"
#600
0"
b110 #
#650
b11111111111111111111111111111110 O
b11111111111111111111111111111110 n
b11111111111111111111111111111110 ""
b11111111111111111111111111111110 $"
b11 L
b11 d
b11 '"
b11 ("
b100000 T
b100000 v
b100000 )"
b100000 w
b1111111111111110 +
b1111111111111110 0
b11111111111111111111111111111110 *
b11111111111111111111111111111110 F
b11111111111111111111111111111110 G
b11111111111111111111111111111110 V
b11111111111111111111111111111110 c
b11111111111111111111111111111110 g
b11111111111111111111111111111110 |
b10000001000 `
b10000001000 y
b1 M
b1 e
b1 l
b1001 i
b11 %
b11 ,
b11 2
b11 9
b11 K
b11 N
b11 m
b11 %"
b1000 j
b11101 k
b10000001000 U
b10000001000 r
b10000001000 s
b10000001000 ~
b10000001000 &"
b10000100100 R
b10000100100 a
b10000100100 u
b100000 !"
b100000 Q
b100000 ]
b100000 t
b1000000100001001000111010110011 !
b1000000100001001000111010110011 $
b1000000100001001000111010110011 )
b1000000100001001000111010110011 /
b1000000100001001000111010110011 3
b1000000100001001000111010110011 7
b1000000100001001000111010110011 H
b1000000100001001000111010110011 p
b11100 '
b11100 .
b11100 4
b11100 E
b11100 I
b11100 S
b11100 ^
b11100 b
b11100 *"
b11100 +"
1"
#700
0"
b111 #
#750
b0 O
b0 n
b0 ""
b0 $"
b1 L
b1 d
b1 '"
b1 ("
b100100 T
b100100 v
b100100 )"
b100100 w
b0 +
b0 0
b0 *
b0 F
b0 G
b0 V
b0 c
b0 g
b0 |
05"
b101 D
b101 [
b101 f
b101 2"
b101 4"
b101 9"
b1001 `
b1001 y
b11 M
b11 e
b11 l
b1000 i
b1 %
b1 ,
b1 2
b1 9
b1 K
b1 N
b1 m
b1 %"
b1001 j
b11110 k
0@
b10 A
b10 Z
b10 ,"
b10 6"
b1001 U
b1001 r
b1001 s
b1001 ~
b1001 &"
b101001 R
b101001 a
b101001 u
b100100 !"
b100100 Q
b100100 ]
b100100 t
b100101000010111100110011 !
b100101000010111100110011 $
b100101000010111100110011 )
b100101000010111100110011 /
b100101000010111100110011 3
b100101000010111100110011 7
b100101000010111100110011 H
b100101000010111100110011 p
b100000 '
b100000 .
b100000 4
b100000 E
b100000 I
b100000 S
b100000 ^
b100000 b
b100000 *"
b100000 +"
1"
#800
0"
b1000 #
#850
b1 O
b1 n
b1 ""
b1 $"
1:
1h
b1 +
b1 0
b1 *
b1 F
b1 G
b1 V
b1 c
b1 g
b1 |
b11 L
b11 d
b11 '"
b11 ("
b101000 T
b101000 v
b101000 )"
b101000 w
b1000 `
b1000 y
b1 M
b1 e
b1 l
b1001 i
b11 %
b11 ,
b11 2
b11 9
b11 K
b11 N
b11 m
b11 %"
b1000 j
b11111 k
b1000 U
b1000 r
b1000 s
b1000 ~
b1000 &"
b101100 R
b101100 a
b101100 u
b101000 !"
b101000 Q
b101000 ]
b101000 t
b100001001010111110110011 !
b100001001010111110110011 $
b100001001010111110110011 )
b100001001010111110110011 /
b100001001010111110110011 3
b100001001010111110110011 7
b100001001010111110110011 H
b100001001010111110110011 p
b100100 '
b100100 .
b100100 4
b100100 E
b100100 I
b100100 S
b100100 ^
b100100 b
b100100 *"
b100100 +"
1"
#900
0"
b1001 #
#950
b11111111111111111111111111111110 L
b11111111111111111111111111111110 d
b11111111111111111111111111111110 '"
b11111111111111111111111111111110 ("
b101100 T
b101100 v
b101100 )"
b101100 w
b11101 `
b11101 y
b11111111111111111111111111111110 %
b11111111111111111111111111111110 ,
b11111111111111111111111111111110 2
b11111111111111111111111111111110 9
b11111111111111111111111111111110 K
b11111111111111111111111111111110 N
b11111111111111111111111111111110 m
b11111111111111111111111111111110 %"
b11101 j
b11101 U
b11101 r
b11101 s
b11101 ~
b11101 &"
b1000101 R
b1000101 a
b1000101 u
b101100 !"
b101100 Q
b101100 ]
b101100 t
b1110101001010111110110011 !
b1110101001010111110110011 $
b1110101001010111110110011 )
b1110101001010111110110011 /
b1110101001010111110110011 3
b1110101001010111110110011 7
b1110101001010111110110011 H
b1110101001010111110110011 p
b101000 '
b101000 .
b101000 4
b101000 E
b101000 I
b101000 S
b101000 ^
b101000 b
b101000 *"
b101000 +"
1"
#1000
0"
b1010 #
#1050
b1 O
b1 n
b1 ""
b1 $"
0:
0h
b1 L
b1 d
b1 '"
b1 ("
b110000 T
b110000 v
b110000 )"
b110000 w
b1 +
b1 0
b1 *
b1 F
b1 G
b1 V
b1 c
b1 g
b1 |
b0 D
b0 [
b0 f
b0 2"
b0 4"
b0 9"
07"
1C
1?"
b1 `
b1 y
b0 M
b0 e
b0 l
b0 i
b0 %
b0 ,
b0 2
b0 9
b0 K
b0 N
b0 m
b0 %"
b1 j
b101 k
b0 A
b0 Z
b0 ,"
b0 6"
b10011 =
b10011 X
b10011 -"
b10011 <"
b1 U
b1 r
b1 s
b1 ~
b1 &"
b101101 R
b101101 a
b101101 u
b110000 !"
b110000 Q
b110000 ]
b110000 t
b100000000001010010011 !
b100000000001010010011 $
b100000000001010010011 )
b100000000001010010011 /
b100000000001010010011 3
b100000000001010010011 7
b100000000001010010011 H
b100000000001010010011 p
b101100 '
b101100 .
b101100 4
b101100 E
b101100 I
b101100 S
b101100 ^
b101100 b
b101100 *"
b101100 +"
1"
#1100
0"
b1011 #
#1150
b0 O
b0 n
b0 ""
b0 $"
b0 +
b0 0
b0 *
b0 F
b0 G
b0 V
b0 c
b0 g
b0 |
b0 L
b0 d
b0 '"
b0 ("
b110100 T
b110100 v
b110100 )"
b110100 w
b0 `
b0 y
b0 j
b110 k
b0 U
b0 r
b0 s
b0 ~
b0 &"
b110000 R
b110000 a
b110000 u
b110100 !"
b110100 Q
b110100 ]
b110100 t
b1100010011 !
b1100010011 $
b1100010011 )
b1100010011 /
b1100010011 3
b1100010011 7
b1100010011 H
b1100010011 p
b110000 '
b110000 .
b110000 4
b110000 E
b110000 I
b110000 S
b110000 ^
b110000 b
b110000 *"
b110000 +"
1"
#1200
0"
b1100 #
#1250
b1 O
b1 n
b1 ""
b1 $"
b10000 L
b10000 d
b10000 '"
b10000 ("
b111000 T
b111000 v
b111000 )"
b111000 w
b1 +
b1 0
b100 D
b100 [
b100 f
b100 2"
b100 4"
b100 9"
b1 *
b1 F
b1 G
b1 V
b1 c
b1 g
b1 |
17"
b1 1"
b1 8"
b1 :"
b1 >"
0<
0D"
b10 ?
b10 Y
b10 q
b10 0"
b10 ;"
b10 A"
0C
0?"
1."
1@"
b10000 `
b10000 y
b1 M
b1 e
b1 l
b101 i
b10000 %
b10000 ,
b10000 2
b10000 9
b10000 K
b10000 N
b10000 m
b10000 %"
b10010 j
b10000 k
b1100011 =
b1100011 X
b1100011 -"
b1100011 <"
b10000 U
b10000 r
b10000 s
b10000 ~
b10000 &"
b1000100 R
b1000100 a
b1000100 u
b111000 !"
b111000 Q
b111000 ]
b111000 t
b1001000101000100001100011 !
b1001000101000100001100011 $
b1001000101000100001100011 )
b1001000101000100001100011 /
b1001000101000100001100011 3
b1001000101000100001100011 7
b1001000101000100001100011 H
b1001000101000100001100011 p
b110100 '
b110100 .
b110100 4
b110100 E
b110100 I
b110100 S
b110100 ^
b110100 b
b110100 *"
b110100 +"
1"
#1300
0"
b1101 #
#1350
b10 O
b10 n
b10 ""
b10 $"
b1 L
b1 d
b1 '"
b1 ("
b111100 T
b111100 v
b111100 )"
b111100 w
b10 +
b10 0
b10 *
b10 F
b10 G
b10 V
b10 c
b10 g
b10 |
b0 D
b0 [
b0 f
b0 2"
b0 4"
b0 9"
b10 1"
b10 8"
b10 :"
b10 >"
1<
1D"
0."
0@"
b100000000100 `
b100000000100 y
b1 %
b1 ,
b1 2
b1 9
b1 K
b1 N
b1 m
b1 %"
b101 j
b101 k
b110011 =
b110011 X
b110011 -"
b110011 <"
b100000000100 U
b100000000100 r
b100000000100 s
b100000000100 ~
b100000000100 &"
b100000111100 R
b100000111100 a
b100000111100 u
b111100 !"
b111100 Q
b111100 ]
b111100 t
b10100101000001010110011 !
b10100101000001010110011 $
b10100101000001010110011 )
b10100101000001010110011 /
b10100101000001010110011 3
b10100101000001010110011 7
b10100101000001010110011 H
b10100101000001010110011 p
b111000 '
b111000 .
b111000 4
b111000 E
b111000 I
b111000 S
b111000 ^
b111000 b
b111000 *"
b111000 +"
1"
#1400
0"
b1110 #
#1450
b1 O
b1 n
b1 ""
b1 $"
b1000000 T
b1000000 v
b1000000 )"
b1000000 w
b1 L
b1 d
b1 '"
b1 ("
07"
b0 ?
b0 Y
b0 q
b0 0"
b0 ;"
b0 A"
1C
1?"
b1 `
b1 y
b1 +
b1 0
b110 i
b1 j
b110 k
b10011 =
b10011 X
b10011 -"
b10011 <"
b1 U
b1 r
b1 s
b1 ~
b1 &"
b1 *
b1 F
b1 G
b1 V
b1 c
b1 g
b1 |
b111101 R
b111101 a
b111101 u
b1000000 !"
b1000000 Q
b1000000 ]
b1000000 t
b100110000001100010011 !
b100110000001100010011 $
b100110000001100010011 )
b100110000001100010011 /
b100110000001100010011 3
b100110000001100010011 7
b100110000001100010011 H
b100110000001100010011 p
b111100 '
b111100 .
b111100 4
b111100 E
b111100 I
b111100 S
b111100 ^
b111100 b
b111100 *"
b111100 +"
b0 M
b0 e
b0 l
b0 %
b0 ,
b0 2
b0 9
b0 K
b0 N
b0 m
b0 %"
1"
#1500
0"
b1111 #
#1550
b11111111111111111111111111110100 O
b11111111111111111111111111110100 n
b11111111111111111111111111110100 ""
b11111111111111111111111111110100 $"
b11111111111111111111111111110100 L
b11111111111111111111111111110100 d
b11111111111111111111111111110100 '"
b11111111111111111111111111110100 ("
b110100 T
b110100 v
b110100 )"
b110100 w
b1 +
b1 0
15"
b10 D
b10 [
b10 f
b10 2"
b10 4"
b10 9"
17"
b11 ?
b11 Y
b11 q
b11 0"
b11 ;"
b11 A"
b10 ;
b10 W
b10 #"
b10 /"
b10 ="
b10 E"
1>
1B"
b1111111111110100 `
b1111111111110100 y
b1 *
b1 F
b1 G
b1 V
b1 c
b1 g
b1 |
b11111 i
b10101 j
b0 k
1@
b111 A
b111 Z
b111 ,"
b111 6"
b1101111 =
b1101111 X
b1101111 -"
b1101111 <"
b11111111111111111111111111110100 U
b11111111111111111111111111110100 r
b11111111111111111111111111110100 s
b11111111111111111111111111110100 ~
b11111111111111111111111111110100 &"
b1 M
b1 e
b1 l
b110100 R
b110100 a
b110100 u
b1000100 !"
b1000100 Q
b1000100 ]
b1000100 t
b11111111010111111111000001101111 !
b11111111010111111111000001101111 $
b11111111010111111111000001101111 )
b11111111010111111111000001101111 /
b11111111010111111111000001101111 3
b11111111010111111111000001101111 7
b11111111010111111111000001101111 H
b11111111010111111111000001101111 p
b1000000 '
b1000000 .
b1000000 4
b1000000 E
b1000000 I
b1000000 S
b1000000 ^
b1000000 b
b1000000 *"
b1000000 +"
1"
#1600
0"
b10000 #
#1650
b10000 L
b10000 d
b10000 '"
b10000 ("
b10000 O
b10000 n
b10000 ""
b10000 $"
b111000 T
b111000 v
b111000 )"
b111000 w
05"
b100 D
b100 [
b100 f
b100 2"
b100 4"
b100 9"
b1 1"
b1 8"
b1 :"
b1 >"
0<
0D"
b10 ?
b10 Y
b10 q
b10 0"
b10 ;"
b10 A"
0C
0?"
0>
0B"
1."
1@"
b10000 `
b10000 y
b10 M
b10 e
b10 l
b101 i
b10000 %
b10000 ,
b10000 2
b10000 9
b10000 K
b10000 N
b10000 m
b10000 %"
b10010 j
b10000 k
0@
b0 A
b0 Z
b0 ,"
b0 6"
b1100011 =
b1100011 X
b1100011 -"
b1100011 <"
b10000 U
b10000 r
b10000 s
b10000 ~
b10000 &"
b1000100 R
b1000100 a
b1000100 u
b111000 !"
b111000 Q
b111000 ]
b111000 t
b1001000101000100001100011 !
b1001000101000100001100011 $
b1001000101000100001100011 )
b1001000101000100001100011 /
b1001000101000100001100011 3
b1001000101000100001100011 7
b1001000101000100001100011 H
b1001000101000100001100011 p
b110100 '
b110100 .
b110100 4
b110100 E
b110100 I
b110100 S
b110100 ^
b110100 b
b110100 *"
b110100 +"
1"
#1700
0"
b10001 #
#1750
b10 L
b10 d
b10 '"
b10 ("
b100 O
b100 n
b100 ""
b100 $"
b111100 T
b111100 v
b111100 )"
b111100 w
b100 +
b100 0
b100 *
b100 F
b100 G
b100 V
b100 c
b100 g
b100 |
b0 D
b0 [
b0 f
b0 2"
b0 4"
b0 9"
b10 1"
b10 8"
b10 :"
b10 >"
1<
1D"
b0 ;
b0 W
b0 #"
b0 /"
b0 ="
b0 E"
0."
0@"
b100000000100 `
b100000000100 y
b10 %
b10 ,
b10 2
b10 9
b10 K
b10 N
b10 m
b10 %"
b101 j
b101 k
b110011 =
b110011 X
b110011 -"
b110011 <"
b100000000100 U
b100000000100 r
b100000000100 s
b100000000100 ~
b100000000100 &"
b100000111100 R
b100000111100 a
b100000111100 u
b111100 !"
b111100 Q
b111100 ]
b111100 t
b10100101000001010110011 !
b10100101000001010110011 $
b10100101000001010110011 )
b10100101000001010110011 /
b10100101000001010110011 3
b10100101000001010110011 7
b10100101000001010110011 H
b10100101000001010110011 p
b111000 '
b111000 .
b111000 4
b111000 E
b111000 I
b111000 S
b111000 ^
b111000 b
b111000 *"
b111000 +"
1"
#1800
0"
b10010 #
#1850
b10 O
b10 n
b10 ""
b10 $"
b1000000 T
b1000000 v
b1000000 )"
b1000000 w
b1 L
b1 d
b1 '"
b1 ("
07"
b0 ?
b0 Y
b0 q
b0 0"
b0 ;"
b0 A"
1C
1?"
b1 `
b1 y
b10 +
b10 0
b110 i
b1 j
b110 k
b10011 =
b10011 X
b10011 -"
b10011 <"
b1 U
b1 r
b1 s
b1 ~
b1 &"
b10 *
b10 F
b10 G
b10 V
b10 c
b10 g
b10 |
b111101 R
b111101 a
b111101 u
b1000000 !"
b1000000 Q
b1000000 ]
b1000000 t
b100110000001100010011 !
b100110000001100010011 $
b100110000001100010011 )
b100110000001100010011 /
b100110000001100010011 3
b100110000001100010011 7
b100110000001100010011 H
b100110000001100010011 p
b111100 '
b111100 .
b111100 4
b111100 E
b111100 I
b111100 S
b111100 ^
b111100 b
b111100 *"
b111100 +"
b1 M
b1 e
b1 l
b0 %
b0 ,
b0 2
b0 9
b0 K
b0 N
b0 m
b0 %"
1"
#1900
0"
b10011 #
#1950
b11111111111111111111111111110100 O
b11111111111111111111111111110100 n
b11111111111111111111111111110100 ""
b11111111111111111111111111110100 $"
b11111111111111111111111111110100 L
b11111111111111111111111111110100 d
b11111111111111111111111111110100 '"
b11111111111111111111111111110100 ("
b110100 T
b110100 v
b110100 )"
b110100 w
b1 +
b1 0
b1 *
b1 F
b1 G
b1 V
b1 c
b1 g
b1 |
15"
b10 D
b10 [
b10 f
b10 2"
b10 4"
b10 9"
17"
b11 ?
b11 Y
b11 q
b11 0"
b11 ;"
b11 A"
b10 ;
b10 W
b10 #"
b10 /"
b10 ="
b10 E"
1>
1B"
b1111111111110100 `
b1111111111110100 y
b11111 i
b10101 j
b0 k
1@
b111 A
b111 Z
b111 ,"
b111 6"
b1101111 =
b1101111 X
b1101111 -"
b1101111 <"
b11111111111111111111111111110100 U
b11111111111111111111111111110100 r
b11111111111111111111111111110100 s
b11111111111111111111111111110100 ~
b11111111111111111111111111110100 &"
b1 M
b1 e
b1 l
b110100 R
b110100 a
b110100 u
b1000100 !"
b1000100 Q
b1000100 ]
b1000100 t
b11111111010111111111000001101111 !
b11111111010111111111000001101111 $
b11111111010111111111000001101111 )
b11111111010111111111000001101111 /
b11111111010111111111000001101111 3
b11111111010111111111000001101111 7
b11111111010111111111000001101111 H
b11111111010111111111000001101111 p
b1000000 '
b1000000 .
b1000000 4
b1000000 E
b1000000 I
b1000000 S
b1000000 ^
b1000000 b
b1000000 *"
b1000000 +"
1"
#2000
0"
b10100 #
